max level,21,,,21,,,5,,,6,,,7,,,4,,,4,,,
,level 1,level 2,level 3,level 4,level 5,level 6,level 7,level 8,level 9,level 10,level 11,level 12,level 13,level 14,level 15,level 16,level 17,level 18,level 19,level 20,level 21,
Info-13,0,0,0,0,0,0,0,0,0,2,2,4,4,10,10,10,10,15,15,20,40,
Info-17,1,2,3,4,5,6,7,8,9,10,11,12,13,14,14,15,15,16,16,16,17,
Info-14,1,2,2,3,3,4,4,4,5,5,6,7,7,8,8,9,9,10,11,11,12,
Info-15,0,0,0,0,0,0,0,1,1,2,2,2,2,2,2,3,3,3,4,4,5,
,,,,,,,,,,,,,,,,,,,,,,
Req-resource-1,0,6000,10000,22000,30000,40000,60000,80000,100000,140000,200000,350000,390000,420000,550000,720000,910000,1100000,2100000,4500000,10000000,
Req-time,0,60,320,1000,1200,1800,2800,3200,4500,6000,7200,9000,11000,14000,18000,22000,28000,60000,90000,200000,500000,
Req-building-10,2,3,4,5,6,7,8,9,10,11,12,13,14,15,16,17,18,19,20,21,21,
